…
## Data

NDVI samples NDVI sample locations ØT fjell regions

ndviTS is a simple tibble with the variables ID, year and NDVI

``` r
ndviTS
```

    ## # A tibble: 500,140 x 3
    ##        ID  year  ndvi
    ##       
    ##  1  15136  2000 0.523
    ##  2 968635  2000 0.201
    ##  3 548872  2000 0.505
    ##  4 338936  2000 0.479
    ##  5 561107  2000 0.458
    ##  6 155082  2000 0.603
    ##  7 752490  2000 0.530
    ##  8  52722  2000 0.552
    ##  9 750123  2000 0.677
    ## 10  87444  2000 0.332
    ## # ... with 500,130 more rows
…
``` r
ndviTrends
```

    ## # A tibble: 25,007 x 5
    ## # Groups:   ID [25,007]
    ##        ID intercept    slope      rsq   pvalue
    ##                      
    ##  1  15136   -1.96   0.00125  0.138    0.107   
    ##  2 968635   -9.26   0.00476  0.254    0.0235  
    ##  3 548872    0.318  0.000108 0.000668 0.914   
    ##  4 338936   -3.33   0.00191  0.170    0.0706  
    ##  5 561107   -6.29   0.00340  0.526    0.000297
    ##  6 155082   -3.64   0.00214  0.156    0.0845  
    ##  7 752490    0.0860 0.000226 0.00467  0.775   
    ##  8  52722   -0.268  0.000449 0.00383  0.795   
    ##  9 750123   -3.08   0.00187  0.151    0.0905  
    ## 10  87444   -1.79   0.00107  0.132    0.116   
    ## # ... with 24,997 more rows

``` r
ndviTrends_ran
```

    ## # A tibble: 25,007 x 5
    ## # Groups:   ID [25,007]
    ##        ID intercept     slope     rsq pvalue
    ##                    
    ##  1  15136    -0.160  0.000357 0.0112   0.657
    ##  2 968635     2.50  -0.00109  0.0133   0.629
    ##  3 548872    -0.732  0.000631 0.0226   0.527
    ##  4 338936    -1.84   0.00117  0.0635   0.284
    ##  5 561107    -1.89   0.00120  0.0661   0.274
    ##  6 155082     1.38  -0.000353 0.00425  0.785
    ##  7 752490     1.49  -0.000474 0.0204   0.548
    ##  8  52722     5.81  -0.00257  0.126    0.125
    ##  9 750123     1.45  -0.000385 0.00640  0.737
    ## 10  87444     1.89  -0.000759 0.0657   0.275
    ## # ... with 24,997 more rows
…
